%YAML 1.1
%TAG !u! tag:unity3d.com,2011:
--- !u!29 &1
OcclusionCullingSettings:
  m_ObjectHideFlags: 0
  serializedVersion: 2
  m_OcclusionBakeSettings:
    smallestOccluder: 5
    smallestHole: 0.25
    backfaceThreshold: 100
  m_SceneGUID: 00000000000000000000000000000000
  m_OcclusionCullingData: {fileID: 0}
--- !u!104 &2
RenderSettings:
  m_ObjectHideFlags: 0
  serializedVersion: 9
  m_Fog: 0
  m_FogColor: {r: 0.5, g: 0.5, b: 0.5, a: 1}
  m_FogMode: 3
  m_FogDensity: 0.01
  m_LinearFogStart: 0
  m_LinearFogEnd: 300
  m_AmbientSkyColor: {r: 0.212, g: 0.227, b: 0.259, a: 1}
  m_AmbientEquatorColor: {r: 0.114, g: 0.125, b: 0.133, a: 1}
  m_AmbientGroundColor: {r: 0.047, g: 0.043, b: 0.035, a: 1}
  m_AmbientIntensity: 1
  m_AmbientMode: 0
  m_SubtractiveShadowColor: {r: 0.42, g: 0.478, b: 0.627, a: 1}
  m_SkyboxMaterial: {fileID: 10304, guid: 0000000000000000f000000000000000, type: 0}
  m_HaloStrength: 0.5
  m_FlareStrength: 1
  m_FlareFadeSpeed: 3
  m_HaloTexture: {fileID: 0}
  m_SpotCookie: {fileID: 10001, guid: 0000000000000000e000000000000000, type: 0}
  m_DefaultReflectionMode: 0
  m_DefaultReflectionResolution: 128
  m_ReflectionBounces: 1
  m_ReflectionIntensity: 1
  m_CustomReflection: {fileID: 0}
  m_Sun: {fileID: 0}
  m_IndirectSpecularColor: {r: 0, g: 0, b: 0, a: 1}
  m_UseRadianceAmbientProbe: 0
--- !u!157 &3
LightmapSettings:
  m_ObjectHideFlags: 0
  serializedVersion: 11
  m_GIWorkflowMode: 1
  m_GISettings:
    serializedVersion: 2
    m_BounceScale: 1
    m_IndirectOutputScale: 1
    m_AlbedoBoost: 1
    m_EnvironmentLightingMode: 0
    m_EnableBakedLightmaps: 1
    m_EnableRealtimeLightmaps: 1
  m_LightmapEditorSettings:
    serializedVersion: 12
    m_Resolution: 2
    m_BakeResolution: 40
    m_AtlasSize: 1024
    m_AO: 0
    m_AOMaxDistance: 1
    m_CompAOExponent: 1
    m_CompAOExponentDirect: 0
    m_ExtractAmbientOcclusion: 0
    m_Padding: 2
    m_LightmapParameters: {fileID: 0}
    m_LightmapsBakeMode: 1
    m_TextureCompression: 1
    m_FinalGather: 0
    m_FinalGatherFiltering: 1
    m_FinalGatherRayCount: 256
    m_ReflectionCompression: 2
    m_MixedBakeMode: 2
    m_BakeBackend: 1
    m_PVRSampling: 1
    m_PVRDirectSampleCount: 32
    m_PVRSampleCount: 512
    m_PVRBounces: 2
    m_PVREnvironmentSampleCount: 256
    m_PVREnvironmentReferencePointCount: 2048
    m_PVRFilteringMode: 1
    m_PVRDenoiserTypeDirect: 1
    m_PVRDenoiserTypeIndirect: 1
    m_PVRDenoiserTypeAO: 1
    m_PVRFilterTypeDirect: 0
    m_PVRFilterTypeIndirect: 0
    m_PVRFilterTypeAO: 0
    m_PVREnvironmentMIS: 1
    m_PVRCulling: 1
    m_PVRFilteringGaussRadiusDirect: 1
    m_PVRFilteringGaussRadiusIndirect: 5
    m_PVRFilteringGaussRadiusAO: 2
    m_PVRFilteringAtrousPositionSigmaDirect: 0.5
    m_PVRFilteringAtrousPositionSigmaIndirect: 2
    m_PVRFilteringAtrousPositionSigmaAO: 1
    m_ExportTrainingData: 0
    m_TrainingDataDestination: TrainingData
  m_LightingDataAsset: {fileID: 0}
  m_UseShadowmask: 1
--- !u!196 &4
NavMeshSettings:
  serializedVersion: 2
  m_ObjectHideFlags: 0
  m_BuildSettings:
    serializedVersion: 2
    agentTypeID: 0
    agentRadius: 0.5
    agentHeight: 2
    agentSlope: 45
    agentClimb: 0.4
    ledgeDropHeight: 0
    maxJumpAcrossDistance: 0
    minRegionArea: 2
    manualCellSize: 0
    cellSize: 0.16666667
    manualTileSize: 0
    tileSize: 256
    accuratePlacement: 0
    debug:
      m_Flags: 0
  m_NavMeshData: {fileID: 0}
--- !u!1001 &525691773
PrefabInstance:
  m_ObjectHideFlags: 0
  serializedVersion: 2
  m_Modification:
    m_TransformParent: {fileID: 0}
    m_Modifications:
    - target: {fileID: -4216859302048453862, guid: 7be16a0566b6f534590b9f3e642c20de,
        type: 3}
      propertyPath: m_LocalPosition.x
      value: -0
      objectReference: {fileID: 0}
    - target: {fileID: -4216859302048453862, guid: 7be16a0566b6f534590b9f3e642c20de,
        type: 3}
      propertyPath: m_LocalPosition.y
      value: 0
      objectReference: {fileID: 0}
    - target: {fileID: -4216859302048453862, guid: 7be16a0566b6f534590b9f3e642c20de,
        type: 3}
      propertyPath: m_LocalPosition.z
      value: 0
      objectReference: {fileID: 0}
    - target: {fileID: -4216859302048453862, guid: 7be16a0566b6f534590b9f3e642c20de,
        type: 3}
      propertyPath: m_LocalRotation.x
      value: 0
      objectReference: {fileID: 0}
    - target: {fileID: -4216859302048453862, guid: 7be16a0566b6f534590b9f3e642c20de,
        type: 3}
      propertyPath: m_LocalRotation.y
      value: -0
      objectReference: {fileID: 0}
    - target: {fileID: -4216859302048453862, guid: 7be16a0566b6f534590b9f3e642c20de,
        type: 3}
      propertyPath: m_LocalRotation.z
      value: -0
      objectReference: {fileID: 0}
    - target: {fileID: -4216859302048453862, guid: 7be16a0566b6f534590b9f3e642c20de,
        type: 3}
      propertyPath: m_LocalRotation.w
      value: 1
      objectReference: {fileID: 0}
    - target: {fileID: -4216859302048453862, guid: 7be16a0566b6f534590b9f3e642c20de,
        type: 3}
      propertyPath: m_RootOrder
      value: 3
      objectReference: {fileID: 0}
    - target: {fileID: -4216859302048453862, guid: 7be16a0566b6f534590b9f3e642c20de,
        type: 3}
      propertyPath: m_LocalEulerAnglesHint.x
      value: 0
      objectReference: {fileID: 0}
    - target: {fileID: -4216859302048453862, guid: 7be16a0566b6f534590b9f3e642c20de,
        type: 3}
      propertyPath: m_LocalEulerAnglesHint.y
      value: 0
      objectReference: {fileID: 0}
    - target: {fileID: -4216859302048453862, guid: 7be16a0566b6f534590b9f3e642c20de,
        type: 3}
      propertyPath: m_LocalEulerAnglesHint.z
      value: 0
      objectReference: {fileID: 0}
    - target: {fileID: -927199367670048503, guid: 7be16a0566b6f534590b9f3e642c20de,
        type: 3}
      propertyPath: m_Name
      value: LVL0_07
      objectReference: {fileID: 0}
    m_RemovedComponents: []
  m_SourcePrefab: {fileID: 100100000, guid: 7be16a0566b6f534590b9f3e642c20de, type: 3}
--- !u!114 &1319947669 stripped
MonoBehaviour:
  m_CorrespondingSourceObject: {fileID: 8623730283585609779, guid: 03a3af240d6bb5f4d8539bc6d33e2b5b,
    type: 3}
  m_PrefabInstance: {fileID: 1807828747}
  m_PrefabAsset: {fileID: 0}
  m_GameObject: {fileID: 0}
  m_Enabled: 1
  m_EditorHideFlags: 0
  m_Script: {fileID: 11500000, guid: 63bb9f5fe5ba59743947b4f84f9f96de, type: 3}
  m_Name: 
  m_EditorClassIdentifier: 
--- !u!114 &1407688428 stripped
MonoBehaviour:
  m_CorrespondingSourceObject: {fileID: 2925538996113048348, guid: 03a3af240d6bb5f4d8539bc6d33e2b5b,
    type: 3}
  m_PrefabInstance: {fileID: 1807828747}
  m_PrefabAsset: {fileID: 0}
  m_GameObject: {fileID: 0}
  m_Enabled: 1
  m_EditorHideFlags: 0
  m_Script: {fileID: 11500000, guid: 63bb9f5fe5ba59743947b4f84f9f96de, type: 3}
  m_Name: 
  m_EditorClassIdentifier: 
--- !u!1 &1465317282
GameObject:
  m_ObjectHideFlags: 0
  m_CorrespondingSourceObject: {fileID: 0}
  m_PrefabInstance: {fileID: 0}
  m_PrefabAsset: {fileID: 0}
  serializedVersion: 6
  m_Component:
  - component: {fileID: 1465317284}
  - component: {fileID: 1465317283}
  m_Layer: 0
  m_Name: Directional Light (1)
  m_TagString: Untagged
  m_Icon: {fileID: 0}
  m_NavMeshLayer: 0
  m_StaticEditorFlags: 0
  m_IsActive: 1
--- !u!108 &1465317283
Light:
  m_ObjectHideFlags: 0
  m_CorrespondingSourceObject: {fileID: 0}
  m_PrefabInstance: {fileID: 0}
  m_PrefabAsset: {fileID: 0}
  m_GameObject: {fileID: 1465317282}
  m_Enabled: 1
  serializedVersion: 9
  m_Type: 1
  m_Color: {r: 1, g: 0.95686275, b: 0.8392157, a: 1}
  m_Intensity: 1
  m_Range: 10
  m_SpotAngle: 30
  m_InnerSpotAngle: 21.80208
  m_CookieSize: 10
  m_Shadows:
    m_Type: 2
    m_Resolution: -1
    m_CustomResolution: -1
    m_Strength: 1
    m_Bias: 0.05
    m_NormalBias: 0.4
    m_NearPlane: 0.2
    m_CullingMatrixOverride:
      e00: 1
      e01: 0
      e02: 0
      e03: 0
      e10: 0
      e11: 1
      e12: 0
      e13: 0
      e20: 0
      e21: 0
      e22: 1
      e23: 0
      e30: 0
      e31: 0
      e32: 0
      e33: 1
    m_UseCullingMatrixOverride: 0
  m_Cookie: {fileID: 0}
  m_DrawHalo: 0
  m_Flare: {fileID: 0}
  m_RenderMode: 0
  m_CullingMask:
    serializedVersion: 2
    m_Bits: 4294967295
  m_RenderingLayerMask: 1
  m_Lightmapping: 4
  m_LightShadowCasterMode: 0
  m_AreaSize: {x: 1, y: 1}
  m_BounceIntensity: 1
  m_ColorTemperature: 6570
  m_UseColorTemperature: 0
  m_BoundingSphereOverride: {x: 0, y: 0, z: 0, w: 0}
  m_UseBoundingSphereOverride: 0
  m_ShadowRadius: 0
  m_ShadowAngle: 0
--- !u!4 &1465317284
Transform:
  m_ObjectHideFlags: 0
  m_CorrespondingSourceObject: {fileID: 0}
  m_PrefabInstance: {fileID: 0}
  m_PrefabAsset: {fileID: 0}
  m_GameObject: {fileID: 1465317282}
  m_LocalRotation: {x: 0.85778177, y: -0.014128618, z: 0.31862473, w: 0.40309933}
  m_LocalPosition: {x: 0, y: 3, z: 0}
  m_LocalScale: {x: 1, y: 1, z: 1}
  m_Children: []
  m_Father: {fileID: 0}
  m_RootOrder: 1
  m_LocalEulerAnglesHint: {x: 135.52899, y: -48.592987, z: -19.026001}
--- !u!1001 &1807828747
PrefabInstance:
  m_ObjectHideFlags: 0
  serializedVersion: 2
  m_Modification:
    m_TransformParent: {fileID: 0}
    m_Modifications:
    - target: {fileID: 1533586490660171029, guid: 03a3af240d6bb5f4d8539bc6d33e2b5b,
        type: 3}
      propertyPath: otherLinkedPoints.Array.data[0]
      value: 
      objectReference: {fileID: 1319947669}
    - target: {fileID: 2925538996113048348, guid: 03a3af240d6bb5f4d8539bc6d33e2b5b,
        type: 3}
      propertyPath: otherLinkedPoints.Array.size
      value: 0
      objectReference: {fileID: 0}
    - target: {fileID: 4178487371180316291, guid: 03a3af240d6bb5f4d8539bc6d33e2b5b,
        type: 3}
      propertyPath: m_LocalPosition.z
      value: 2.4
      objectReference: {fileID: 0}
    - target: {fileID: 4178487371180316291, guid: 03a3af240d6bb5f4d8539bc6d33e2b5b,
        type: 3}
      propertyPath: m_LocalPosition.x
      value: -0.02
      objectReference: {fileID: 0}
    - target: {fileID: 4178487371180316291, guid: 03a3af240d6bb5f4d8539bc6d33e2b5b,
        type: 3}
      propertyPath: m_LocalPosition.y
      value: 0.547
      objectReference: {fileID: 0}
    - target: {fileID: 8623730283404637082, guid: 03a3af240d6bb5f4d8539bc6d33e2b5b,
        type: 3}
      propertyPath: m_LocalPosition.z
      value: -2.16
      objectReference: {fileID: 0}
    - target: {fileID: 8623730283404637082, guid: 03a3af240d6bb5f4d8539bc6d33e2b5b,
        type: 3}
      propertyPath: m_LocalPosition.x
      value: -8.14
      objectReference: {fileID: 0}
    - target: {fileID: 8623730283404637082, guid: 03a3af240d6bb5f4d8539bc6d33e2b5b,
        type: 3}
      propertyPath: m_LocalPosition.y
      value: 0.54700017
      objectReference: {fileID: 0}
    - target: {fileID: 8623730283585609775, guid: 03a3af240d6bb5f4d8539bc6d33e2b5b,
        type: 3}
      propertyPath: m_LocalPosition.z
      value: 10.88
      objectReference: {fileID: 0}
    - target: {fileID: 8623730283585609775, guid: 03a3af240d6bb5f4d8539bc6d33e2b5b,
        type: 3}
      propertyPath: m_LocalPosition.x
      value: 0.1
      objectReference: {fileID: 0}
    - target: {fileID: 8623730283585609775, guid: 03a3af240d6bb5f4d8539bc6d33e2b5b,
        type: 3}
      propertyPath: m_LocalPosition.y
      value: 0.54700017
      objectReference: {fileID: 0}
    - target: {fileID: 8623730283831538228, guid: 03a3af240d6bb5f4d8539bc6d33e2b5b,
        type: 3}
      propertyPath: m_LocalPosition.z
      value: -14.98
      objectReference: {fileID: 0}
    - target: {fileID: 8623730283831538228, guid: 03a3af240d6bb5f4d8539bc6d33e2b5b,
        type: 3}
      propertyPath: m_LocalPosition.x
      value: -7.99
      objectReference: {fileID: 0}
    - target: {fileID: 8623730283831538228, guid: 03a3af240d6bb5f4d8539bc6d33e2b5b,
        type: 3}
      propertyPath: m_LocalPosition.y
      value: 0.54700017
      objectReference: {fileID: 0}
    - target: {fileID: 8623730283935329861, guid: 03a3af240d6bb5f4d8539bc6d33e2b5b,
        type: 3}
      propertyPath: m_LocalPosition.z
      value: -4
      objectReference: {fileID: 0}
    - target: {fileID: 8623730283935329861, guid: 03a3af240d6bb5f4d8539bc6d33e2b5b,
        type: 3}
      propertyPath: m_LocalPosition.x
      value: -10.16
      objectReference: {fileID: 0}
    - target: {fileID: 8623730283935329861, guid: 03a3af240d6bb5f4d8539bc6d33e2b5b,
        type: 3}
      propertyPath: m_LocalPosition.y
      value: 0.54700017
      objectReference: {fileID: 0}
    - target: {fileID: 8623730283935329862, guid: 03a3af240d6bb5f4d8539bc6d33e2b5b,
        type: 3}
      propertyPath: otherLinkedPoints.Array.size
      value: 1
      objectReference: {fileID: 0}
    - target: {fileID: 8623730283935329862, guid: 03a3af240d6bb5f4d8539bc6d33e2b5b,
        type: 3}
      propertyPath: otherLinkedPoints.Array.data[1]
      value: 
      objectReference: {fileID: 1407688428}
    - target: {fileID: 8623730283935329862, guid: 03a3af240d6bb5f4d8539bc6d33e2b5b,
        type: 3}
      propertyPath: otherLinkedPoints.Array.data[0]
      value: 
      objectReference: {fileID: 1407688428}
    - target: {fileID: 8623730284236807897, guid: 03a3af240d6bb5f4d8539bc6d33e2b5b,
        type: 3}
      propertyPath: m_LocalPosition.z
      value: -1.97
      objectReference: {fileID: 0}
    - target: {fileID: 8623730284236807897, guid: 03a3af240d6bb5f4d8539bc6d33e2b5b,
        type: 3}
      propertyPath: m_LocalPosition.x
      value: -0.52
      objectReference: {fileID: 0}
    - target: {fileID: 8623730284236807897, guid: 03a3af240d6bb5f4d8539bc6d33e2b5b,
        type: 3}
      propertyPath: m_LocalPosition.y
      value: 0.54700017
      objectReference: {fileID: 0}
    - target: {fileID: 8623730284672151864, guid: 03a3af240d6bb5f4d8539bc6d33e2b5b,
        type: 3}
      propertyPath: otherLinkedPoints.Array.data[0]
      value: 
      objectReference: {fileID: 1962966476}
    - target: {fileID: 8623730284672151871, guid: 03a3af240d6bb5f4d8539bc6d33e2b5b,
        type: 3}
      propertyPath: m_LocalPosition.z
      value: -16.32
      objectReference: {fileID: 0}
    - target: {fileID: 8623730284672151871, guid: 03a3af240d6bb5f4d8539bc6d33e2b5b,
        type: 3}
      propertyPath: m_LocalPosition.x
      value: -7.95
      objectReference: {fileID: 0}
    - target: {fileID: 8623730284672151871, guid: 03a3af240d6bb5f4d8539bc6d33e2b5b,
        type: 3}
      propertyPath: m_LocalPosition.y
      value: 0.54700017
      objectReference: {fileID: 0}
    - target: {fileID: 8623730285079040773, guid: 03a3af240d6bb5f4d8539bc6d33e2b5b,
        type: 3}
      propertyPath: m_Name
      value: IbrahimVai
      objectReference: {fileID: 0}
    - target: {fileID: 8623730285079040774, guid: 03a3af240d6bb5f4d8539bc6d33e2b5b,
        type: 3}
      propertyPath: m_LocalPosition.x
      value: 0
      objectReference: {fileID: 0}
    - target: {fileID: 8623730285079040774, guid: 03a3af240d6bb5f4d8539bc6d33e2b5b,
        type: 3}
      propertyPath: m_LocalPosition.y
      value: 0
      objectReference: {fileID: 0}
    - target: {fileID: 8623730285079040774, guid: 03a3af240d6bb5f4d8539bc6d33e2b5b,
        type: 3}
      propertyPath: m_LocalPosition.z
      value: 0
      objectReference: {fileID: 0}
    - target: {fileID: 8623730285079040774, guid: 03a3af240d6bb5f4d8539bc6d33e2b5b,
        type: 3}
      propertyPath: m_LocalRotation.x
      value: 0
      objectReference: {fileID: 0}
    - target: {fileID: 8623730285079040774, guid: 03a3af240d6bb5f4d8539bc6d33e2b5b,
        type: 3}
      propertyPath: m_LocalRotation.y
      value: 0
      objectReference: {fileID: 0}
    - target: {fileID: 8623730285079040774, guid: 03a3af240d6bb5f4d8539bc6d33e2b5b,
        type: 3}
      propertyPath: m_LocalRotation.z
      value: 0
      objectReference: {fileID: 0}
    - target: {fileID: 8623730285079040774, guid: 03a3af240d6bb5f4d8539bc6d33e2b5b,
        type: 3}
      propertyPath: m_LocalRotation.w
      value: 1
      objectReference: {fileID: 0}
    - target: {fileID: 8623730285079040774, guid: 03a3af240d6bb5f4d8539bc6d33e2b5b,
        type: 3}
      propertyPath: m_RootOrder
      value: 2
      objectReference: {fileID: 0}
    - target: {fileID: 8623730285079040774, guid: 03a3af240d6bb5f4d8539bc6d33e2b5b,
        type: 3}
      propertyPath: m_LocalEulerAnglesHint.x
      value: 0
      objectReference: {fileID: 0}
    - target: {fileID: 8623730285079040774, guid: 03a3af240d6bb5f4d8539bc6d33e2b5b,
        type: 3}
      propertyPath: m_LocalEulerAnglesHint.y
      value: 0
      objectReference: {fileID: 0}
    - target: {fileID: 8623730285079040774, guid: 03a3af240d6bb5f4d8539bc6d33e2b5b,
        type: 3}
      propertyPath: m_LocalEulerAnglesHint.z
      value: 0
      objectReference: {fileID: 0}
    - target: {fileID: 8962224501917097010, guid: 03a3af240d6bb5f4d8539bc6d33e2b5b,
        type: 3}
      propertyPath: m_LocalPosition.z
      value: -4.012
      objectReference: {fileID: 0}
    - target: {fileID: 8962224501917097010, guid: 03a3af240d6bb5f4d8539bc6d33e2b5b,
        type: 3}
      propertyPath: m_LocalPosition.x
      value: -13.32
      objectReference: {fileID: 0}
    - target: {fileID: 8962224501917097010, guid: 03a3af240d6bb5f4d8539bc6d33e2b5b,
        type: 3}
      propertyPath: m_LocalPosition.y
      value: 0.54700017
      objectReference: {fileID: 0}
    m_RemovedComponents: []
  m_SourcePrefab: {fileID: 100100000, guid: 03a3af240d6bb5f4d8539bc6d33e2b5b, type: 3}
--- !u!1 &1808203161
GameObject:
  m_ObjectHideFlags: 0
  m_CorrespondingSourceObject: {fileID: 0}
  m_PrefabInstance: {fileID: 0}
  m_PrefabAsset: {fileID: 0}
  serializedVersion: 6
  m_Component:
  - component: {fileID: 1808203163}
  - component: {fileID: 1808203162}
  m_Layer: 0
  m_Name: Directional Light
  m_TagString: Untagged
  m_Icon: {fileID: 0}
  m_NavMeshLayer: 0
  m_StaticEditorFlags: 0
  m_IsActive: 1
--- !u!108 &1808203162
Light:
  m_ObjectHideFlags: 0
  m_CorrespondingSourceObject: {fileID: 0}
  m_PrefabInstance: {fileID: 0}
  m_PrefabAsset: {fileID: 0}
  m_GameObject: {fileID: 1808203161}
  m_Enabled: 1
  serializedVersion: 9
  m_Type: 1
  m_Color: {r: 1, g: 0.95686275, b: 0.8392157, a: 1}
  m_Intensity: 1
  m_Range: 10
  m_SpotAngle: 30
  m_InnerSpotAngle: 21.80208
  m_CookieSize: 10
  m_Shadows:
    m_Type: 2
    m_Resolution: -1
    m_CustomResolution: -1
    m_Strength: 1
    m_Bias: 0.05
    m_NormalBias: 0.4
    m_NearPlane: 0.2
    m_CullingMatrixOverride:
      e00: 1
      e01: 0
      e02: 0
      e03: 0
      e10: 0
      e11: 1
      e12: 0
      e13: 0
      e20: 0
      e21: 0
      e22: 1
      e23: 0
      e30: 0
      e31: 0
      e32: 0
      e33: 1
    m_UseCullingMatrixOverride: 0
  m_Cookie: {fileID: 0}
  m_DrawHalo: 0
  m_Flare: {fileID: 0}
  m_RenderMode: 0
  m_CullingMask:
    serializedVersion: 2
    m_Bits: 4294967295
  m_RenderingLayerMask: 1
  m_Lightmapping: 4
  m_LightShadowCasterMode: 0
  m_AreaSize: {x: 1, y: 1}
  m_BounceIntensity: 1
  m_ColorTemperature: 6570
  m_UseColorTemperature: 0
  m_BoundingSphereOverride: {x: 0, y: 0, z: 0, w: 0}
  m_UseBoundingSphereOverride: 0
  m_ShadowRadius: 0
  m_ShadowAngle: 0
--- !u!4 &1808203163
Transform:
  m_ObjectHideFlags: 0
  m_CorrespondingSourceObject: {fileID: 0}
  m_PrefabInstance: {fileID: 0}
  m_PrefabAsset: {fileID: 0}
  m_GameObject: {fileID: 1808203161}
  m_LocalRotation: {x: 0.40821788, y: -0.23456968, z: 0.10938163, w: 0.8754261}
  m_LocalPosition: {x: 0, y: 3, z: 0}
  m_LocalScale: {x: 1, y: 1, z: 1}
  m_Children: []
  m_Father: {fileID: 0}
  m_RootOrder: 0
  m_LocalEulerAnglesHint: {x: 50, y: -30, z: 0}
--- !u!114 &1962966476 stripped
MonoBehaviour:
  m_CorrespondingSourceObject: {fileID: 8623730283935329862, guid: 03a3af240d6bb5f4d8539bc6d33e2b5b,
    type: 3}
  m_PrefabInstance: {fileID: 1807828747}
  m_PrefabAsset: {fileID: 0}
  m_GameObject: {fileID: 0}
  m_Enabled: 1
  m_EditorHideFlags: 0
  m_Script: {fileID: 11500000, guid: 63bb9f5fe5ba59743947b4f84f9f96de, type: 3}
  m_Name: 
  m_EditorClassIdentifier: 
